…
## 2 forest                  21             126
## 3 grassland               35             111
## 4 mountain                18              94
## 5 rare                     5              11
## 6 rough-terrain            8             140
## 7 sea                     15             105
## 8 urban                   22              88
## 9 waters-edge             19             110
```
**Using type option**
```
poke.summary(pokeframe, 'type')
```
```
## # A tibble: 38 x 3
##    type            pokemonCount meanCaptureRate
##    <chr>                  <int>           <dbl>
##  1 bug                        3             140
##  2 dragon                     2              45
##  3 electric                   6             101
##  4 fairy                      2              88
##  5 fairy, normal              2             110
##  6 fairy, psychic             1              45
##  7 fighting                   7              96
##  8 fighting, water            1              45
##  9 fire                      10              96
## 10 flying, bug                2              45
## # … with 28 more rows
```
…
